{
  "key": "sm-multi-merge",
  "name": "Multi Merge",
  "description": "Creates multiple pull requests by the click of a button.",
  "baseUrl": "https://hrwg.de/addons/multi-merge/",
  "modules": {
    "oauthConsumer": {
      "clientId": "feb2Fbej2JKHhLPqQC"
    },
    "repoPages": [{
      "key": "multimerge",
      "name": {
        "value": "Multi Merge"
      },
      "url": "/index.html?repo_uuid={repo_uuid}",
      "location": "org.bitbucket.repository.navigation",
      "params": {
        "auiIcon": "aui-iconfont-pages"
      }
    }]
  },
  "scopes": ["repository", "pullrequest", "pullrequest:write"],
  "contexts": ["personal"]
}